{
	"version": 1,
	
	"ageing" : {
		"__metaInfo": {"typeName": "JIntMap"},
		"0": {
			"DetNat": 1.1, "BloodMax": 1000,
			"AgeReq": 0
		},
		"1": {
			"DetNat": 1.0, "BloodMax": 1000, "buff": "__formData|mslVampiricThirst.esm|0x030022F5",
			"AgeReq": 7
		},
		"2": {
			"DetNat": 0.9, "BloodMax": 1300, "buff": "__formData|mslVampiricThirst.esm|0x0300285C",
			"AgeReq": 21
		},
		"3": {
			"DetNat": 0.8, "BloodMax": 1700, "buff": "__formData|mslVampiricThirst.esm|0x0300285D",
			"AgeReq": 90
		},
		"4": {
			"DetNat": 0.7, "BloodMax": 2200, "buff": "__formData|mslVampiricThirst.esm|0x0300285F",
			"AgeReq": 270
		}
	},

	"global": {
		"BloodCurr": "__formData|mslVampiricThirst.esm|0x2dd1",
		"NonZeroBloodFaction": "__formData|vimm_VampiricEffects.esp|0x281b5"
	},

	"hunger": {
		"sated": {
			"max": 100, "min":90, "buff": "__formData|mslVampiricThirst.esm|0x2de0",
			"vanilla": 4, "sunDamageMod": 0
		},
		"normal": {
			"max": 90, "min":50, "vanilla": 3, "sunDamageMod": 5
		},
		"hungry": {
			"max": 50, "min":30, "buff": "__formData|mslVampiricThirst.esm|0x2de3",
			"vanilla": 3, "sunDamageMod": 10
		},
		"craving": {
			"max": 30, "min":15, "buff": "__formData|mslVampiricThirst.esm|0x2de6",
			"vanilla": 2, "sunDamageMod": 15
		},
		"ravenous": {
			"max": 15, "min":0, "buff": "__formData|mslVampiricThirst.esm|0x2de7",
			"vanilla": 1, "sunDamageMod": 25
		},
		"starving": {
			"max": 0, "min":-1, "sunDamageMod": 40,
			"buff": "__formData|mslVampiricThirst.esm|0x2de9", "vanilla": 1
		}
	}

	

}
